…
## Files written

These files have been written to the target directory,
`data/01a-timeseries-BioTIME`:

``` r
projthis::proj_dir_info(path_target())
```

    ## # A tibble: 39 × 4
    ##    path                                      type       size modification_time  
    ##    <fs::path>                                <fct> <fs::byt> <dttm>             
    ##  1 ps_study_339_GenusLevel.rds               file      2.22K 2023-10-22 19:03:53
    ##  2 ps_study_339_Genus_10_most_abundant.rds   file       1.5K 2023-10-22 19:03:53
    ##  3 ps_study_339_SpeciesLevel.rds             file      3.13K 2023-10-22 19:03:53
    ##  4 ps_study_339_Species_15_most_abundant.rds file      1.93K 2023-10-22 19:03:53
    ##  5 ps_study_363_GenusLevel.rds               file      1.85K 2023-10-22 19:03:53
    ##  6 ps_study_363_Genus_10_most_abundant.rds   file      1.48K 2023-10-22 19:03:53
    ##  7 ps_study_363_SpeciesLevel.rds             file      2.57K 2023-10-22 19:03:53
    ##  8 ps_study_363_Species_15_most_abundant.rds file      1.85K 2023-10-22 19:03:53
    ##  9 ps_study_39_GenusLevel.rds                file      2.49K 2023-10-22 19:03:54
    ## 10 ps_study_39_Genus_10_most_abundant.rds    file      1.41K 2023-10-22 19:03:54
    ## # ℹ 29 more rows
