…
``` r
data <-
  ps_donorA %>% 
  psmelt() %>%
  as_tibble()

# highest abundance: all samples pooled together
data %>%
  group_by(Family) %>%
  summarise(Abundance = max(Abundance)) %>%
  arrange(-Abundance)
```

    ## # A tibble: 140 × 2
    ##    Family                       Abundance
    ##    <chr>                            <int>
    ##  1 Ruminococcaceae                   8132
    ##  2 unknown                           8058
    ##  3 Bacteroidaceae                    6291
    ##  4 Coprobacillaceae                  4933
    ##  5 Lachnospiraceae                   3485
    ##  6 Enterobacteriaceae_A              2898
    ##  7 Pasteurellaceae                   2817
    ##  8 Clostridiaceae_222000             2725
    ##  9 Peptostreptococcaceae_256921      2488
    ## 10 Acutalibacteraceae                2149
    ## # ℹ 130 more rows

``` r
# number of samples with abundance != 0
data %>%
  group_by(Order, Sample) %>%
  summarise(Abundance = sum(Abundance)) %>% 
  group_by(Order) %>% 
  summarise(Abundance = sum(Abundance > 0.0001)) %>%
  arrange(-Abundance)
```

    ## `summarise()` has grouped output by 'Order'. You can override using the
    ## `.groups` argument.

    ## # A tibble: 82 × 2
    ##    Order                Abundance
    ##    <chr>                    <int>
    ##  1 Acidaminococcales          365
    ##  2 Bacteroidales              365
    ##  3 Coriobacteriales           365
    ##  4 Erysipelotrichales         365
    ##  5 Lachnospirales             365
    ##  6 Lactobacillales            365
    ##  7 Oscillospirales            365
    ##  8 unknown                    365
    ##  9 Peptostreptococcales       362
    ## 10 Veillonellales             360
    ## # ℹ 72 more rows
…
